#send3 67
0,0
1,-1
0,-2
1,-1
0,-1
0,0
1,1
0,1
1,2
0,3
0,4
0,6
0,6
0,8
1,8
0,8
1,8
1,7
1,6
1,6
1,4
1,3
0,3
0,1
-1,1
-1,-1
-1,-1
-1,-3
-2,-4
-2,-6
-3,-6
-3,-7
-3,-7
-4,-8
-3,-8
-4,-6
-4,-7
-4,-5
-4,-4
-4,-4
-3,-2
-2,-2
-2,-2
-1,-1
-1,-1
1,-1
1,0
2,0
3,0
4,0
5,0
5,1
7,0
7,1
7,0
8,0
8,-1
8,-2
8,-1
8,-3
6,-2
6,-2
4,-3
4,-1
2,-1
1,-1
0,0